** urn:pcbe13632.cern.ch:CERN:QuasarOpcUaServer: start trace
** Date: 2018-03-22
**
15:51:20.897Z|2|B8781840* WARNING: No ApplicationControlCallback available, cannot create ServerConfigurationType object
